%YAML 1.1
%TAG !u! tag:unity3d.com,2011:
--- !u!114 &11400000
MonoBehaviour:
  m_ObjectHideFlags: 0
  m_CorrespondingSourceObject: {fileID: 0}
  m_PrefabInstance: {fileID: 0}
  m_PrefabAsset: {fileID: 0}
  m_GameObject: {fileID: 0}
  m_Enabled: 1
  m_EditorHideFlags: 0
  m_Script: {fileID: 11500000, guid: b2686e09ec7aef44bad2843e4416f057, type: 3}
  m_Name: Foliage_sakura
  m_EditorClassIdentifier: 
  m_Version: 1
  profile:
    scatteringDistance: {r: 1, g: 0.8726415, b: 0.9619818, a: 1}
    transmissionTint: {r: 1, g: 0.9292453, b: 0.9920393, a: 1}
    texturingMode: 0
    transmissionMode: 1
    thicknessRemap: {x: 0, y: 1.5930977}
    worldScale: 1
    ior: 1.397
    hash: 1081462307
