%YAML 1.1
%TAG !u! tag:unity3d.com,2011:
--- !u!1 &2714851096058663215
GameObject:
  m_ObjectHideFlags: 0
  m_CorrespondingSourceObject: {fileID: 0}
  m_PrefabInstance: {fileID: 0}
  m_PrefabAsset: {fileID: 0}
  serializedVersion: 6
  m_Component:
  - component: {fileID: 7240776617789156847}
  - component: {fileID: -4584683088129669315}
  m_Layer: 0
  m_Name: Rock_Medium_2
  m_TagString: Untagged
  m_Icon: {fileID: 0}
  m_NavMeshLayer: 0
  m_StaticEditorFlags: 4294967295
  m_IsActive: 1
--- !u!4 &7240776617789156847
Transform:
  m_ObjectHideFlags: 0
  m_CorrespondingSourceObject: {fileID: 0}
  m_PrefabInstance: {fileID: 0}
  m_PrefabAsset: {fileID: 0}
  m_GameObject: {fileID: 2714851096058663215}
  m_LocalRotation: {x: 0, y: 0, z: 0, w: 1}
  m_LocalPosition: {x: 0, y: 0, z: 0}
  m_LocalScale: {x: 1, y: 1, z: 1}
  m_Children:
  - {fileID: 6430623655005724226}
  m_Father: {fileID: 0}
  m_RootOrder: 0
  m_LocalEulerAnglesHint: {x: 0, y: 0, z: 0}
--- !u!64 &-4584683088129669315
MeshCollider:
  m_ObjectHideFlags: 0
  m_CorrespondingSourceObject: {fileID: 0}
  m_PrefabInstance: {fileID: 0}
  m_PrefabAsset: {fileID: 0}
  m_GameObject: {fileID: 2714851096058663215}
  m_Material: {fileID: 0}
  m_IsTrigger: 0
  m_Enabled: 1
  serializedVersion: 4
  m_Convex: 1
  m_CookingOptions: 30
  m_Mesh: {fileID: 942652998770351810, guid: 7f7b3da9f1f1e1a4c9030fb6680c2da1, type: 3}
--- !u!64 &3788491429113508405
MeshCollider:
  m_ObjectHideFlags: 0
  m_CorrespondingSourceObject: {fileID: 0}
  m_PrefabInstance: {fileID: 0}
  m_PrefabAsset: {fileID: 0}
  m_GameObject: {fileID: 5941930746119144696}
  m_Material: {fileID: 0}
  m_IsTrigger: 0
  m_Enabled: 1
  serializedVersion: 4
  m_Convex: 1
  m_CookingOptions: 30
  m_Mesh: {fileID: 942652998770351810, guid: 7f7b3da9f1f1e1a4c9030fb6680c2da1, type: 3}
--- !u!1001 &6824241349297600937
PrefabInstance:
  m_ObjectHideFlags: 0
  serializedVersion: 2
  m_Modification:
    m_TransformParent: {fileID: 7240776617789156847}
    m_Modifications:
    - target: {fileID: -8679921383154817045, guid: 7f7b3da9f1f1e1a4c9030fb6680c2da1, type: 3}
      propertyPath: m_LocalPosition.x
      value: 0
      objectReference: {fileID: 0}
    - target: {fileID: -8679921383154817045, guid: 7f7b3da9f1f1e1a4c9030fb6680c2da1, type: 3}
      propertyPath: m_LocalPosition.y
      value: 0
      objectReference: {fileID: 0}
    - target: {fileID: -8679921383154817045, guid: 7f7b3da9f1f1e1a4c9030fb6680c2da1, type: 3}
      propertyPath: m_LocalPosition.z
      value: 0
      objectReference: {fileID: 0}
    - target: {fileID: -8679921383154817045, guid: 7f7b3da9f1f1e1a4c9030fb6680c2da1, type: 3}
      propertyPath: m_LocalRotation.x
      value: -0
      objectReference: {fileID: 0}
    - target: {fileID: -8679921383154817045, guid: 7f7b3da9f1f1e1a4c9030fb6680c2da1, type: 3}
      propertyPath: m_LocalRotation.y
      value: -0
      objectReference: {fileID: 0}
    - target: {fileID: -8679921383154817045, guid: 7f7b3da9f1f1e1a4c9030fb6680c2da1, type: 3}
      propertyPath: m_LocalRotation.z
      value: -0
      objectReference: {fileID: 0}
    - target: {fileID: -8679921383154817045, guid: 7f7b3da9f1f1e1a4c9030fb6680c2da1, type: 3}
      propertyPath: m_LocalRotation.w
      value: 1
      objectReference: {fileID: 0}
    - target: {fileID: -8679921383154817045, guid: 7f7b3da9f1f1e1a4c9030fb6680c2da1, type: 3}
      propertyPath: m_RootOrder
      value: 0
      objectReference: {fileID: 0}
    - target: {fileID: -8679921383154817045, guid: 7f7b3da9f1f1e1a4c9030fb6680c2da1, type: 3}
      propertyPath: m_LocalEulerAnglesHint.x
      value: 0
      objectReference: {fileID: 0}
    - target: {fileID: -8679921383154817045, guid: 7f7b3da9f1f1e1a4c9030fb6680c2da1, type: 3}
      propertyPath: m_LocalEulerAnglesHint.y
      value: 0
      objectReference: {fileID: 0}
    - target: {fileID: -8679921383154817045, guid: 7f7b3da9f1f1e1a4c9030fb6680c2da1, type: 3}
      propertyPath: m_LocalEulerAnglesHint.z
      value: 0
      objectReference: {fileID: 0}
    - target: {fileID: -4644015045560366947, guid: 7f7b3da9f1f1e1a4c9030fb6680c2da1, type: 3}
      propertyPath: m_StaticEditorFlags
      value: 4294967295
      objectReference: {fileID: 0}
    - target: {fileID: -1520551064626041101, guid: 7f7b3da9f1f1e1a4c9030fb6680c2da1, type: 3}
      propertyPath: m_StaticEditorFlags
      value: 4294967295
      objectReference: {fileID: 0}
    - target: {fileID: 919132149155446097, guid: 7f7b3da9f1f1e1a4c9030fb6680c2da1, type: 3}
      propertyPath: m_Name
      value: rock_medium_2
      objectReference: {fileID: 0}
    - target: {fileID: 919132149155446097, guid: 7f7b3da9f1f1e1a4c9030fb6680c2da1, type: 3}
      propertyPath: m_StaticEditorFlags
      value: 4294967295
      objectReference: {fileID: 0}
    - target: {fileID: 4742473837712756890, guid: 7f7b3da9f1f1e1a4c9030fb6680c2da1, type: 3}
      propertyPath: m_LODs.Array.data[0].screenRelativeHeight
      value: 0.11582818
      objectReference: {fileID: 0}
    - target: {fileID: 4742473837712756890, guid: 7f7b3da9f1f1e1a4c9030fb6680c2da1, type: 3}
      propertyPath: m_LODs.Array.data[1].screenRelativeHeight
      value: 0.006701785
      objectReference: {fileID: 0}
    m_RemovedComponents: []
  m_SourcePrefab: {fileID: 100100000, guid: 7f7b3da9f1f1e1a4c9030fb6680c2da1, type: 3}
--- !u!1 &5941930746119144696 stripped
GameObject:
  m_CorrespondingSourceObject: {fileID: 919132149155446097, guid: 7f7b3da9f1f1e1a4c9030fb6680c2da1, type: 3}
  m_PrefabInstance: {fileID: 6824241349297600937}
  m_PrefabAsset: {fileID: 0}
--- !u!4 &6430623655005724226 stripped
Transform:
  m_CorrespondingSourceObject: {fileID: -8679921383154817045, guid: 7f7b3da9f1f1e1a4c9030fb6680c2da1, type: 3}
  m_PrefabInstance: {fileID: 6824241349297600937}
  m_PrefabAsset: {fileID: 0}
