%YAML 1.1
%TAG !u! tag:unity3d.com,2011:
--- !u!1 &740183583728390165
GameObject:
  m_ObjectHideFlags: 0
  m_CorrespondingSourceObject: {fileID: 0}
  m_PrefabInstance: {fileID: 0}
  m_PrefabAsset: {fileID: 0}
  serializedVersion: 6
  m_Component:
  - component: {fileID: 4165491879495241915}
  - component: {fileID: 1103115668364730768}
  m_Layer: 0
  m_Name: Rock_Medium_4
  m_TagString: Untagged
  m_Icon: {fileID: 0}
  m_NavMeshLayer: 0
  m_StaticEditorFlags: 4294967295
  m_IsActive: 1
--- !u!4 &4165491879495241915
Transform:
  m_ObjectHideFlags: 0
  m_CorrespondingSourceObject: {fileID: 0}
  m_PrefabInstance: {fileID: 0}
  m_PrefabAsset: {fileID: 0}
  m_GameObject: {fileID: 740183583728390165}
  m_LocalRotation: {x: 0, y: 0, z: 0, w: 1}
  m_LocalPosition: {x: 0, y: 0, z: 0}
  m_LocalScale: {x: 1, y: 1, z: 1}
  m_Children:
  - {fileID: 8643702725369443688}
  m_Father: {fileID: 0}
  m_RootOrder: 0
  m_LocalEulerAnglesHint: {x: 0, y: 0, z: 0}
--- !u!64 &1103115668364730768
MeshCollider:
  m_ObjectHideFlags: 0
  m_CorrespondingSourceObject: {fileID: 0}
  m_PrefabInstance: {fileID: 0}
  m_PrefabAsset: {fileID: 0}
  m_GameObject: {fileID: 740183583728390165}
  m_Material: {fileID: 0}
  m_IsTrigger: 0
  m_Enabled: 1
  serializedVersion: 4
  m_Convex: 1
  m_CookingOptions: 30
  m_Mesh: {fileID: -5221573249203409854, guid: ed9780f478e6ce44e8509ceafbdd613d, type: 3}
--- !u!64 &6285998671906872566
MeshCollider:
  m_ObjectHideFlags: 0
  m_CorrespondingSourceObject: {fileID: 0}
  m_PrefabInstance: {fileID: 0}
  m_PrefabAsset: {fileID: 0}
  m_GameObject: {fileID: 8988984167493070802}
  m_Material: {fileID: 0}
  m_IsTrigger: 0
  m_Enabled: 1
  serializedVersion: 4
  m_Convex: 1
  m_CookingOptions: 30
  m_Mesh: {fileID: -5221573249203409854, guid: ed9780f478e6ce44e8509ceafbdd613d, type: 3}
--- !u!1001 &8105952286968500867
PrefabInstance:
  m_ObjectHideFlags: 0
  serializedVersion: 2
  m_Modification:
    m_TransformParent: {fileID: 4165491879495241915}
    m_Modifications:
    - target: {fileID: -8679921383154817045, guid: ed9780f478e6ce44e8509ceafbdd613d, type: 3}
      propertyPath: m_LocalPosition.x
      value: 0
      objectReference: {fileID: 0}
    - target: {fileID: -8679921383154817045, guid: ed9780f478e6ce44e8509ceafbdd613d, type: 3}
      propertyPath: m_LocalPosition.y
      value: 0
      objectReference: {fileID: 0}
    - target: {fileID: -8679921383154817045, guid: ed9780f478e6ce44e8509ceafbdd613d, type: 3}
      propertyPath: m_LocalPosition.z
      value: 0
      objectReference: {fileID: 0}
    - target: {fileID: -8679921383154817045, guid: ed9780f478e6ce44e8509ceafbdd613d, type: 3}
      propertyPath: m_LocalRotation.x
      value: -0
      objectReference: {fileID: 0}
    - target: {fileID: -8679921383154817045, guid: ed9780f478e6ce44e8509ceafbdd613d, type: 3}
      propertyPath: m_LocalRotation.y
      value: -0
      objectReference: {fileID: 0}
    - target: {fileID: -8679921383154817045, guid: ed9780f478e6ce44e8509ceafbdd613d, type: 3}
      propertyPath: m_LocalRotation.z
      value: -0
      objectReference: {fileID: 0}
    - target: {fileID: -8679921383154817045, guid: ed9780f478e6ce44e8509ceafbdd613d, type: 3}
      propertyPath: m_LocalRotation.w
      value: 1
      objectReference: {fileID: 0}
    - target: {fileID: -8679921383154817045, guid: ed9780f478e6ce44e8509ceafbdd613d, type: 3}
      propertyPath: m_RootOrder
      value: 0
      objectReference: {fileID: 0}
    - target: {fileID: -8679921383154817045, guid: ed9780f478e6ce44e8509ceafbdd613d, type: 3}
      propertyPath: m_LocalEulerAnglesHint.x
      value: 0
      objectReference: {fileID: 0}
    - target: {fileID: -8679921383154817045, guid: ed9780f478e6ce44e8509ceafbdd613d, type: 3}
      propertyPath: m_LocalEulerAnglesHint.y
      value: 0
      objectReference: {fileID: 0}
    - target: {fileID: -8679921383154817045, guid: ed9780f478e6ce44e8509ceafbdd613d, type: 3}
      propertyPath: m_LocalEulerAnglesHint.z
      value: 0
      objectReference: {fileID: 0}
    - target: {fileID: 919132149155446097, guid: ed9780f478e6ce44e8509ceafbdd613d, type: 3}
      propertyPath: m_Name
      value: rock_medium_4
      objectReference: {fileID: 0}
    - target: {fileID: 919132149155446097, guid: ed9780f478e6ce44e8509ceafbdd613d, type: 3}
      propertyPath: m_StaticEditorFlags
      value: 4294967295
      objectReference: {fileID: 0}
    - target: {fileID: 4742473837712756890, guid: ed9780f478e6ce44e8509ceafbdd613d, type: 3}
      propertyPath: m_LODs.Array.data[0].screenRelativeHeight
      value: 0.082338214
      objectReference: {fileID: 0}
    - target: {fileID: 4742473837712756890, guid: ed9780f478e6ce44e8509ceafbdd613d, type: 3}
      propertyPath: m_LODs.Array.data[1].screenRelativeHeight
      value: 0.0044616535
      objectReference: {fileID: 0}
    - target: {fileID: 4742473837712756890, guid: ed9780f478e6ce44e8509ceafbdd613d, type: 3}
      propertyPath: m_FadeMode
      value: 1
      objectReference: {fileID: 0}
    - target: {fileID: 4742473837712756890, guid: ed9780f478e6ce44e8509ceafbdd613d, type: 3}
      propertyPath: m_AnimateCrossFading
      value: 1
      objectReference: {fileID: 0}
    - target: {fileID: 7482273450282447747, guid: ed9780f478e6ce44e8509ceafbdd613d, type: 3}
      propertyPath: m_StaticEditorFlags
      value: 4294967295
      objectReference: {fileID: 0}
    - target: {fileID: 8323289376739644370, guid: ed9780f478e6ce44e8509ceafbdd613d, type: 3}
      propertyPath: m_StaticEditorFlags
      value: 4294967295
      objectReference: {fileID: 0}
    m_RemovedComponents: []
  m_SourcePrefab: {fileID: 100100000, guid: ed9780f478e6ce44e8509ceafbdd613d, type: 3}
--- !u!1 &8988984167493070802 stripped
GameObject:
  m_CorrespondingSourceObject: {fileID: 919132149155446097, guid: ed9780f478e6ce44e8509ceafbdd613d, type: 3}
  m_PrefabInstance: {fileID: 8105952286968500867}
  m_PrefabAsset: {fileID: 0}
--- !u!4 &8643702725369443688 stripped
Transform:
  m_CorrespondingSourceObject: {fileID: -8679921383154817045, guid: ed9780f478e6ce44e8509ceafbdd613d, type: 3}
  m_PrefabInstance: {fileID: 8105952286968500867}
  m_PrefabAsset: {fileID: 0}
