%YAML 1.1
%TAG !u! tag:unity3d.com,2011:
--- !u!1 &5132016512147020599
GameObject:
  m_ObjectHideFlags: 0
  m_CorrespondingSourceObject: {fileID: 0}
  m_PrefabInstance: {fileID: 0}
  m_PrefabAsset: {fileID: 0}
  serializedVersion: 6
  m_Component:
  - component: {fileID: 8914053381879354543}
  - component: {fileID: 85078186333666691}
  m_Layer: 0
  m_Name: Rock_Medium_3
  m_TagString: Untagged
  m_Icon: {fileID: 0}
  m_NavMeshLayer: 0
  m_StaticEditorFlags: 4294967295
  m_IsActive: 1
--- !u!4 &8914053381879354543
Transform:
  m_ObjectHideFlags: 0
  m_CorrespondingSourceObject: {fileID: 0}
  m_PrefabInstance: {fileID: 0}
  m_PrefabAsset: {fileID: 0}
  m_GameObject: {fileID: 5132016512147020599}
  m_LocalRotation: {x: 0, y: 0, z: 0, w: 1}
  m_LocalPosition: {x: 0, y: 0, z: 0}
  m_LocalScale: {x: 1, y: 1, z: 1}
  m_Children:
  - {fileID: 7732730358632835151}
  m_Father: {fileID: 0}
  m_RootOrder: 0
  m_LocalEulerAnglesHint: {x: 0, y: 0, z: 0}
--- !u!64 &85078186333666691
MeshCollider:
  m_ObjectHideFlags: 0
  m_CorrespondingSourceObject: {fileID: 0}
  m_PrefabInstance: {fileID: 0}
  m_PrefabAsset: {fileID: 0}
  m_GameObject: {fileID: 5132016512147020599}
  m_Material: {fileID: 0}
  m_IsTrigger: 0
  m_Enabled: 1
  serializedVersion: 4
  m_Convex: 1
  m_CookingOptions: 30
  m_Mesh: {fileID: -1892456042083887878, guid: 82ec29e287746a344b62565208ea9aee, type: 3}
--- !u!64 &8420677457887269831
MeshCollider:
  m_ObjectHideFlags: 0
  m_CorrespondingSourceObject: {fileID: 0}
  m_PrefabInstance: {fileID: 0}
  m_PrefabAsset: {fileID: 0}
  m_GameObject: {fileID: 6925408016304976629}
  m_Material: {fileID: 0}
  m_IsTrigger: 0
  m_Enabled: 1
  serializedVersion: 4
  m_Convex: 1
  m_CookingOptions: 30
  m_Mesh: {fileID: -1892456042083887878, guid: 82ec29e287746a344b62565208ea9aee, type: 3}
--- !u!1001 &7843744668797702052
PrefabInstance:
  m_ObjectHideFlags: 0
  serializedVersion: 2
  m_Modification:
    m_TransformParent: {fileID: 8914053381879354543}
    m_Modifications:
    - target: {fileID: -8679921383154817045, guid: 82ec29e287746a344b62565208ea9aee, type: 3}
      propertyPath: m_LocalPosition.x
      value: 0
      objectReference: {fileID: 0}
    - target: {fileID: -8679921383154817045, guid: 82ec29e287746a344b62565208ea9aee, type: 3}
      propertyPath: m_LocalPosition.y
      value: 0
      objectReference: {fileID: 0}
    - target: {fileID: -8679921383154817045, guid: 82ec29e287746a344b62565208ea9aee, type: 3}
      propertyPath: m_LocalPosition.z
      value: 0
      objectReference: {fileID: 0}
    - target: {fileID: -8679921383154817045, guid: 82ec29e287746a344b62565208ea9aee, type: 3}
      propertyPath: m_LocalRotation.x
      value: -0
      objectReference: {fileID: 0}
    - target: {fileID: -8679921383154817045, guid: 82ec29e287746a344b62565208ea9aee, type: 3}
      propertyPath: m_LocalRotation.y
      value: -0
      objectReference: {fileID: 0}
    - target: {fileID: -8679921383154817045, guid: 82ec29e287746a344b62565208ea9aee, type: 3}
      propertyPath: m_LocalRotation.z
      value: -0
      objectReference: {fileID: 0}
    - target: {fileID: -8679921383154817045, guid: 82ec29e287746a344b62565208ea9aee, type: 3}
      propertyPath: m_LocalRotation.w
      value: 1
      objectReference: {fileID: 0}
    - target: {fileID: -8679921383154817045, guid: 82ec29e287746a344b62565208ea9aee, type: 3}
      propertyPath: m_RootOrder
      value: 0
      objectReference: {fileID: 0}
    - target: {fileID: -8679921383154817045, guid: 82ec29e287746a344b62565208ea9aee, type: 3}
      propertyPath: m_LocalEulerAnglesHint.x
      value: 0
      objectReference: {fileID: 0}
    - target: {fileID: -8679921383154817045, guid: 82ec29e287746a344b62565208ea9aee, type: 3}
      propertyPath: m_LocalEulerAnglesHint.y
      value: 0
      objectReference: {fileID: 0}
    - target: {fileID: -8679921383154817045, guid: 82ec29e287746a344b62565208ea9aee, type: 3}
      propertyPath: m_LocalEulerAnglesHint.z
      value: 0
      objectReference: {fileID: 0}
    - target: {fileID: -2148732121349760322, guid: 82ec29e287746a344b62565208ea9aee, type: 3}
      propertyPath: m_StaticEditorFlags
      value: 4294967295
      objectReference: {fileID: 0}
    - target: {fileID: 919132149155446097, guid: 82ec29e287746a344b62565208ea9aee, type: 3}
      propertyPath: m_Name
      value: rock_medium_3
      objectReference: {fileID: 0}
    - target: {fileID: 919132149155446097, guid: 82ec29e287746a344b62565208ea9aee, type: 3}
      propertyPath: m_StaticEditorFlags
      value: 4294967295
      objectReference: {fileID: 0}
    - target: {fileID: 4742473837712756890, guid: 82ec29e287746a344b62565208ea9aee, type: 3}
      propertyPath: m_LODs.Array.data[0].screenRelativeHeight
      value: 0.05558465
      objectReference: {fileID: 0}
    - target: {fileID: 4742473837712756890, guid: 82ec29e287746a344b62565208ea9aee, type: 3}
      propertyPath: m_FadeMode
      value: 0
      objectReference: {fileID: 0}
    - target: {fileID: 4742473837712756890, guid: 82ec29e287746a344b62565208ea9aee, type: 3}
      propertyPath: m_AnimateCrossFading
      value: 1
      objectReference: {fileID: 0}
    - target: {fileID: 4742473837712756890, guid: 82ec29e287746a344b62565208ea9aee, type: 3}
      propertyPath: m_LODs.Array.data[1].screenRelativeHeight
      value: 0.0051656943
      objectReference: {fileID: 0}
    - target: {fileID: 6346576198047608747, guid: 82ec29e287746a344b62565208ea9aee, type: 3}
      propertyPath: m_StaticEditorFlags
      value: 4294967295
      objectReference: {fileID: 0}
    m_RemovedComponents: []
  m_SourcePrefab: {fileID: 100100000, guid: 82ec29e287746a344b62565208ea9aee, type: 3}
--- !u!1 &6925408016304976629 stripped
GameObject:
  m_CorrespondingSourceObject: {fileID: 919132149155446097, guid: 82ec29e287746a344b62565208ea9aee, type: 3}
  m_PrefabInstance: {fileID: 7843744668797702052}
  m_PrefabAsset: {fileID: 0}
--- !u!4 &7732730358632835151 stripped
Transform:
  m_CorrespondingSourceObject: {fileID: -8679921383154817045, guid: 82ec29e287746a344b62565208ea9aee, type: 3}
  m_PrefabInstance: {fileID: 7843744668797702052}
  m_PrefabAsset: {fileID: 0}
