%YAML 1.1
%TAG !u! tag:unity3d.com,2011:
--- !u!1045 &1
EditorBuildSettings:
  m_ObjectHideFlags: 0
  serializedVersion: 2
  m_Scenes:
  - enabled: 0
    path: 
    guid: cbfe36cfddfde964d9dfce63a355d5dd
  - enabled: 1
    path: Assets/Scenes/MainMenu.unity
    guid: 83c2552bb9ce8514ca28c75eb99f198e
  - enabled: 1
    path: Assets/Scenes/Arena1.unity
    guid: aa356c7defc3ad047a2f9e461c332d33
  m_configObjects: {}
