%YAML 1.1
%TAG !u! tag:unity3d.com,2011:
--- !u!114 &-8691207851730267890
MonoBehaviour:
  m_ObjectHideFlags: 3
  m_CorrespondingSourceObject: {fileID: 0}
  m_PrefabInstance: {fileID: 0}
  m_PrefabAsset: {fileID: 0}
  m_GameObject: {fileID: 0}
  m_Enabled: 1
  m_EditorHideFlags: 0
  m_Script: {fileID: 11500000, guid: 598e2d32e2c7b0c418e030c3236d663a, type: 3}
  m_Name: ChromaticAberration
  m_EditorClassIdentifier: 
  active: 1
  m_AdvancedMode: 0
  quality:
    m_OverrideState: 1
    m_Value: 0
  spectralLut:
    m_OverrideState: 0
    m_Value: {fileID: 0}
  intensity:
    m_OverrideState: 1
    m_Value: 0.11
    min: 0
    max: 1
  m_MaxSamples:
    m_OverrideState: 0
    m_Value: 6
    min: 3
    max: 24
--- !u!114 &-5421900858889056258
MonoBehaviour:
  m_ObjectHideFlags: 3
  m_CorrespondingSourceObject: {fileID: 0}
  m_PrefabInstance: {fileID: 0}
  m_PrefabAsset: {fileID: 0}
  m_GameObject: {fileID: 0}
  m_Enabled: 1
  m_EditorHideFlags: 0
  m_Script: {fileID: 11500000, guid: f086a068d4c5889438831b3ae9afc11c, type: 3}
  m_Name: Tonemapping
  m_EditorClassIdentifier: 
  active: 1
  m_AdvancedMode: 0
  mode:
    m_OverrideState: 1
    m_Value: 2
  toeStrength:
    m_OverrideState: 0
    m_Value: 0
    min: 0
    max: 1
  toeLength:
    m_OverrideState: 0
    m_Value: 0.5
    min: 0
    max: 1
  shoulderStrength:
    m_OverrideState: 0
    m_Value: 0
    min: 0
    max: 1
  shoulderLength:
    m_OverrideState: 0
    m_Value: 0.5
    min: 0
  shoulderAngle:
    m_OverrideState: 0
    m_Value: 0
    min: 0
    max: 1
  gamma:
    m_OverrideState: 0
    m_Value: 1
    min: 0.001
  lutTexture:
    m_OverrideState: 0
    m_Value: {fileID: 0}
  lutContribution:
    m_OverrideState: 0
    m_Value: 1
    min: 0
    max: 1
--- !u!114 &-4736172424022883526
MonoBehaviour:
  m_ObjectHideFlags: 3
  m_CorrespondingSourceObject: {fileID: 0}
  m_PrefabInstance: {fileID: 0}
  m_PrefabAsset: {fileID: 0}
  m_GameObject: {fileID: 0}
  m_Enabled: 1
  m_EditorHideFlags: 0
  m_Script: {fileID: 11500000, guid: 24f077503be6ae942a1e1245dbd53ea9, type: 3}
  m_Name: Bloom
  m_EditorClassIdentifier: 
  active: 1
  m_AdvancedMode: 0
  quality:
    m_OverrideState: 1
    m_Value: 0
  threshold:
    m_OverrideState: 1
    m_Value: 0.9
    min: 0
  intensity:
    m_OverrideState: 1
    m_Value: 1
    min: 0
    max: 1
  scatter:
    m_OverrideState: 1
    m_Value: 0.7
    min: 0
    max: 1
  tint:
    m_OverrideState: 1
    m_Value: {r: 1, g: 1, b: 1, a: 1}
    hdr: 0
    showAlpha: 0
    showEyeDropper: 1
  dirtTexture:
    m_OverrideState: 1
    m_Value: {fileID: 0}
  dirtIntensity:
    m_OverrideState: 1
    m_Value: 0
    min: 0
  anamorphic:
    m_OverrideState: 1
    m_Value: 1
  m_Resolution:
    m_OverrideState: 1
    m_Value: 2
  m_HighQualityFiltering:
    m_OverrideState: 1
    m_Value: 1
--- !u!114 &-4448077936263892956
MonoBehaviour:
  m_ObjectHideFlags: 3
  m_CorrespondingSourceObject: {fileID: 0}
  m_PrefabInstance: {fileID: 0}
  m_PrefabAsset: {fileID: 0}
  m_GameObject: {fileID: 0}
  m_Enabled: 1
  m_EditorHideFlags: 0
  m_Script: {fileID: 11500000, guid: b51a78e223a2e504bb88a059b55229ea, type: 3}
  m_Name: WhiteBalance
  m_EditorClassIdentifier: 
  active: 1
  m_AdvancedMode: 0
  temperature:
    m_OverrideState: 1
    m_Value: 2
    min: -100
    max: 100
  tint:
    m_OverrideState: 1
    m_Value: 6
    min: -100
    max: 100
--- !u!114 &11400000
MonoBehaviour:
  m_ObjectHideFlags: 0
  m_CorrespondingSourceObject: {fileID: 0}
  m_PrefabInstance: {fileID: 0}
  m_PrefabAsset: {fileID: 0}
  m_GameObject: {fileID: 0}
  m_Enabled: 1
  m_EditorHideFlags: 0
  m_Script: {fileID: 11500000, guid: d7fd9488000d3734a9e00ee676215985, type: 3}
  m_Name: Arena PostProcessing
  m_EditorClassIdentifier: 
  components:
  - {fileID: -8691207851730267890}
  - {fileID: 1036994030713489571}
  - {fileID: 2564648590364739429}
  - {fileID: 6239694770370423422}
  - {fileID: 6506438725973951463}
  - {fileID: 3564744633082457559}
  - {fileID: 1947871568240540706}
  - {fileID: -4448077936263892956}
  - {fileID: -5421900858889056258}
  - {fileID: 9141136875352256767}
  - {fileID: -4736172424022883526}
--- !u!114 &1036994030713489571
MonoBehaviour:
  m_ObjectHideFlags: 3
  m_CorrespondingSourceObject: {fileID: 0}
  m_PrefabInstance: {fileID: 0}
  m_PrefabAsset: {fileID: 0}
  m_GameObject: {fileID: 0}
  m_Enabled: 1
  m_EditorHideFlags: 0
  m_Script: {fileID: 11500000, guid: 9c1bfcd0f0fa7b8468f281d6bbbaf320, type: 3}
  m_Name: LensDistortion
  m_EditorClassIdentifier: 
  active: 1
  m_AdvancedMode: 0
  intensity:
    m_OverrideState: 0
    m_Value: 0
    min: -1
    max: 1
  xMultiplier:
    m_OverrideState: 0
    m_Value: 1
    min: 0
    max: 1
  yMultiplier:
    m_OverrideState: 0
    m_Value: 1
    min: 0
    max: 1
  center:
    m_OverrideState: 0
    m_Value: {x: 0.5, y: 0.5}
  scale:
    m_OverrideState: 0
    m_Value: 1
    min: 0.01
    max: 5
--- !u!114 &1947871568240540706
MonoBehaviour:
  m_ObjectHideFlags: 3
  m_CorrespondingSourceObject: {fileID: 0}
  m_PrefabInstance: {fileID: 0}
  m_PrefabAsset: {fileID: 0}
  m_GameObject: {fileID: 0}
  m_Enabled: 1
  m_EditorHideFlags: 0
  m_Script: {fileID: 11500000, guid: 5a6b00fcf518bb94a90b408492e07b44, type: 3}
  m_Name: FilmGrain
  m_EditorClassIdentifier: 
  active: 1
  m_AdvancedMode: 0
  type:
    m_OverrideState: 1
    m_Value: 10
  intensity:
    m_OverrideState: 1
    m_Value: 0.01
    min: 0
    max: 1
  response:
    m_OverrideState: 1
    m_Value: 0.5
    min: 0
    max: 1
  texture:
    m_OverrideState: 1
    m_Value: {fileID: 2800000, guid: 59523733bc9d0054cbc371123a9a5b9d, type: 3}
--- !u!114 &2564648590364739429
MonoBehaviour:
  m_ObjectHideFlags: 3
  m_CorrespondingSourceObject: {fileID: 0}
  m_PrefabInstance: {fileID: 0}
  m_PrefabAsset: {fileID: 0}
  m_GameObject: {fileID: 0}
  m_Enabled: 1
  m_EditorHideFlags: 0
  m_Script: {fileID: 11500000, guid: 4b8bcdf71d7fafa419fca1ed162f5fc9, type: 3}
  m_Name: ColorAdjustments
  m_EditorClassIdentifier: 
  active: 1
  m_AdvancedMode: 0
  postExposure:
    m_OverrideState: 1
    m_Value: -0.1
  contrast:
    m_OverrideState: 1
    m_Value: 2
    min: -100
    max: 100
  colorFilter:
    m_OverrideState: 0
    m_Value: {r: 1, g: 1, b: 1, a: 1}
    hdr: 1
    showAlpha: 0
    showEyeDropper: 1
  hueShift:
    m_OverrideState: 0
    m_Value: 0
    min: -180
    max: 180
  saturation:
    m_OverrideState: 1
    m_Value: 10
    min: -100
    max: 100
--- !u!114 &3564744633082457559
MonoBehaviour:
  m_ObjectHideFlags: 3
  m_CorrespondingSourceObject: {fileID: 0}
  m_PrefabInstance: {fileID: 0}
  m_PrefabAsset: {fileID: 0}
  m_GameObject: {fileID: 0}
  m_Enabled: 1
  m_EditorHideFlags: 0
  m_Script: {fileID: 11500000, guid: 9008a067f4d626c4d8bc4bc48f04bb89, type: 3}
  m_Name: AmbientOcclusion
  m_EditorClassIdentifier: 
  active: 1
  m_AdvancedMode: 0
  quality:
    m_OverrideState: 1
    m_Value: 0
  rayTracing:
    m_OverrideState: 1
    m_Value: 0
  intensity:
    m_OverrideState: 1
    m_Value: 1.25
    min: 0
    max: 4
  directLightingStrength:
    m_OverrideState: 1
    m_Value: 0.25
    min: 0
    max: 1
  radius:
    m_OverrideState: 1
    m_Value: 1.5
    min: 0.25
    max: 5
  temporalAccumulation:
    m_OverrideState: 1
    m_Value: 1
  ghostingReduction:
    m_OverrideState: 1
    m_Value: 0.5
    min: 0
    max: 1
  blurSharpness:
    m_OverrideState: 1
    m_Value: 1
    min: 0
    max: 1
  layerMask:
    m_OverrideState: 1
    m_Value:
      serializedVersion: 2
      m_Bits: 4294967295
  rayLength:
    m_OverrideState: 1
    m_Value: 0.5
    min: 0
    max: 50
  sampleCount:
    m_OverrideState: 1
    m_Value: 4
    min: 1
    max: 64
  denoise:
    m_OverrideState: 1
    m_Value: 0
  denoiserRadius:
    m_OverrideState: 1
    m_Value: 0.5
    min: 0.001
    max: 1
  m_StepCount:
    m_OverrideState: 1
    m_Value: 6
    min: 2
    max: 32
  m_FullResolution:
    m_OverrideState: 1
    m_Value: 0
  m_MaximumRadiusInPixels:
    m_OverrideState: 1
    m_Value: 40
    min: 16
    max: 256
  m_BilateralUpsample:
    m_OverrideState: 1
    m_Value: 1
  m_DirectionCount:
    m_OverrideState: 1
    m_Value: 2
    min: 1
    max: 6
--- !u!114 &6239694770370423422
MonoBehaviour:
  m_ObjectHideFlags: 3
  m_CorrespondingSourceObject: {fileID: 0}
  m_PrefabInstance: {fileID: 0}
  m_PrefabAsset: {fileID: 0}
  m_GameObject: {fileID: 0}
  m_Enabled: 1
  m_EditorHideFlags: 0
  m_Script: {fileID: 11500000, guid: 2c1be1b6c95cd2e41b27903b9270817f, type: 3}
  m_Name: Vignette
  m_EditorClassIdentifier: 
  active: 1
  m_AdvancedMode: 0
  mode:
    m_OverrideState: 1
    m_Value: 0
  color:
    m_OverrideState: 0
    m_Value: {r: 0, g: 0, b: 0, a: 1}
    hdr: 0
    showAlpha: 0
    showEyeDropper: 1
  center:
    m_OverrideState: 0
    m_Value: {x: 0.5, y: 0.5}
  intensity:
    m_OverrideState: 1
    m_Value: 0.15
    min: 0
    max: 1
  smoothness:
    m_OverrideState: 1
    m_Value: 0.3
    min: 0.01
    max: 1
  roundness:
    m_OverrideState: 0
    m_Value: 1
    min: 0
    max: 1
  rounded:
    m_OverrideState: 0
    m_Value: 0
  mask:
    m_OverrideState: 0
    m_Value: {fileID: 0}
  opacity:
    m_OverrideState: 1
    m_Value: 1
    min: 0
    max: 1
--- !u!114 &6506438725973951463
MonoBehaviour:
  m_ObjectHideFlags: 3
  m_CorrespondingSourceObject: {fileID: 0}
  m_PrefabInstance: {fileID: 0}
  m_PrefabAsset: {fileID: 0}
  m_GameObject: {fileID: 0}
  m_Enabled: 1
  m_EditorHideFlags: 0
  m_Script: {fileID: 11500000, guid: bcf384b154398e341b6b29969c078198, type: 3}
  m_Name: MotionBlur
  m_EditorClassIdentifier: 
  active: 1
  m_AdvancedMode: 1
  quality:
    m_OverrideState: 0
    m_Value: 1
  intensity:
    m_OverrideState: 1
    m_Value: 0
    min: 0
  maximumVelocity:
    m_OverrideState: 0
    m_Value: 200
    min: 0
    max: 1500
  minimumVelocity:
    m_OverrideState: 0
    m_Value: 2
    min: 0
    max: 64
  cameraRotationVelocityClamp:
    m_OverrideState: 1
    m_Value: 0.001
    min: 0
    max: 0.2
  depthComparisonExtent:
    m_OverrideState: 0
    m_Value: 1
    min: 0
    max: 20
  cameraMotionBlur:
    m_OverrideState: 1
    m_Value: 1
  m_SampleCount:
    m_OverrideState: 0
    m_Value: 8
    min: 2
--- !u!114 &9141136875352256767
MonoBehaviour:
  m_ObjectHideFlags: 3
  m_CorrespondingSourceObject: {fileID: 0}
  m_PrefabInstance: {fileID: 0}
  m_PrefabAsset: {fileID: 0}
  m_GameObject: {fileID: 0}
  m_Enabled: 1
  m_EditorHideFlags: 0
  m_Script: {fileID: 11500000, guid: 4bff652df78c97c4f963064ad1f34619, type: 3}
  m_Name: ColorCurves
  m_EditorClassIdentifier: 
  active: 1
  m_AdvancedMode: 0
  master:
    m_OverrideState: 1
    m_Value:
      <length>k__BackingField: 3
      m_Loop: 0
      m_ZeroValue: 0
      m_Range: 1
      m_Curve:
        serializedVersion: 2
        m_Curve:
        - serializedVersion: 3
          time: 0
          value: 0
          inSlope: 1
          outSlope: 1
          tangentMode: 0
          weightedMode: 0
          inWeight: 0
          outWeight: 0
        - serializedVersion: 3
          time: 0.46969697
          value: 0.5294118
          inSlope: 0.9615847
          outSlope: 0.9615847
          tangentMode: 0
          weightedMode: 0
          inWeight: 0
          outWeight: 0
        - serializedVersion: 3
          time: 1
          value: 1
          inSlope: 1
          outSlope: 1
          tangentMode: 0
          weightedMode: 0
          inWeight: 0
          outWeight: 0
        m_PreInfinity: 2
        m_PostInfinity: 2
        m_RotationOrder: 4
  red:
    m_OverrideState: 0
    m_Value:
      <length>k__BackingField: 2
      m_Loop: 0
      m_ZeroValue: 0
      m_Range: 1
      m_Curve:
        serializedVersion: 2
        m_Curve:
        - serializedVersion: 3
          time: 0
          value: 0
          inSlope: 1
          outSlope: 1
          tangentMode: 0
          weightedMode: 0
          inWeight: 0
          outWeight: 0
        - serializedVersion: 3
          time: 1
          value: 1
          inSlope: 1
          outSlope: 1
          tangentMode: 0
          weightedMode: 0
          inWeight: 0
          outWeight: 0
        m_PreInfinity: 2
        m_PostInfinity: 2
        m_RotationOrder: 4
  green:
    m_OverrideState: 0
    m_Value:
      <length>k__BackingField: 2
      m_Loop: 0
      m_ZeroValue: 0
      m_Range: 1
      m_Curve:
        serializedVersion: 2
        m_Curve:
        - serializedVersion: 3
          time: 0
          value: 0
          inSlope: 1
          outSlope: 1
          tangentMode: 0
          weightedMode: 0
          inWeight: 0
          outWeight: 0
        - serializedVersion: 3
          time: 1
          value: 1
          inSlope: 1
          outSlope: 1
          tangentMode: 0
          weightedMode: 0
          inWeight: 0
          outWeight: 0
        m_PreInfinity: 2
        m_PostInfinity: 2
        m_RotationOrder: 4
  blue:
    m_OverrideState: 0
    m_Value:
      <length>k__BackingField: 2
      m_Loop: 0
      m_ZeroValue: 0
      m_Range: 1
      m_Curve:
        serializedVersion: 2
        m_Curve:
        - serializedVersion: 3
          time: 0
          value: 0
          inSlope: 1
          outSlope: 1
          tangentMode: 0
          weightedMode: 0
          inWeight: 0
          outWeight: 0
        - serializedVersion: 3
          time: 1
          value: 1
          inSlope: 1
          outSlope: 1
          tangentMode: 0
          weightedMode: 0
          inWeight: 0
          outWeight: 0
        m_PreInfinity: 2
        m_PostInfinity: 2
        m_RotationOrder: 4
  hueVsHue:
    m_OverrideState: 0
    m_Value:
      <length>k__BackingField: 0
      m_Loop: 1
      m_ZeroValue: 0.5
      m_Range: 1
      m_Curve:
        serializedVersion: 2
        m_Curve: []
        m_PreInfinity: 2
        m_PostInfinity: 2
        m_RotationOrder: 4
  hueVsSat:
    m_OverrideState: 0
    m_Value:
      <length>k__BackingField: 0
      m_Loop: 1
      m_ZeroValue: 0.5
      m_Range: 1
      m_Curve:
        serializedVersion: 2
        m_Curve: []
        m_PreInfinity: 2
        m_PostInfinity: 2
        m_RotationOrder: 4
  satVsSat:
    m_OverrideState: 0
    m_Value:
      <length>k__BackingField: 0
      m_Loop: 0
      m_ZeroValue: 0.5
      m_Range: 1
      m_Curve:
        serializedVersion: 2
        m_Curve: []
        m_PreInfinity: 2
        m_PostInfinity: 2
        m_RotationOrder: 4
  lumVsSat:
    m_OverrideState: 0
    m_Value:
      <length>k__BackingField: 0
      m_Loop: 0
      m_ZeroValue: 0.5
      m_Range: 1
      m_Curve:
        serializedVersion: 2
        m_Curve: []
        m_PreInfinity: 2
        m_PostInfinity: 2
        m_RotationOrder: 4
  m_SelectedCurve: 0
