%YAML 1.1
%TAG !u! tag:unity3d.com,2011:
--- !u!1001 &6618761877964950934
PrefabInstance:
  m_ObjectHideFlags: 0
  serializedVersion: 2
  m_Modification:
    m_TransformParent: {fileID: 0}
    m_Modifications:
    - target: {fileID: 1132908701902023693, guid: 1bd80fca0881d3644af1d2d3487e6430, type: 3}
      propertyPath: m_Materials.Array.data[0]
      value: 
      objectReference: {fileID: 2100000, guid: 4eb53a54e88f5ae47b7e07fa8bfec334, type: 2}
    - target: {fileID: 3082783376759099776, guid: 1bd80fca0881d3644af1d2d3487e6430, type: 3}
      propertyPath: m_Name
      value: Coin_x5
      objectReference: {fileID: 0}
    - target: {fileID: 3082783376759099776, guid: 1bd80fca0881d3644af1d2d3487e6430, type: 3}
      propertyPath: m_TagString
      value: coin_red
      objectReference: {fileID: 0}
    - target: {fileID: 3082783376759099779, guid: 1bd80fca0881d3644af1d2d3487e6430, type: 3}
      propertyPath: m_LocalPosition.x
      value: 0
      objectReference: {fileID: 0}
    - target: {fileID: 3082783376759099779, guid: 1bd80fca0881d3644af1d2d3487e6430, type: 3}
      propertyPath: m_LocalPosition.y
      value: 0
      objectReference: {fileID: 0}
    - target: {fileID: 3082783376759099779, guid: 1bd80fca0881d3644af1d2d3487e6430, type: 3}
      propertyPath: m_LocalPosition.z
      value: 0
      objectReference: {fileID: 0}
    - target: {fileID: 3082783376759099779, guid: 1bd80fca0881d3644af1d2d3487e6430, type: 3}
      propertyPath: m_RootOrder
      value: 0
      objectReference: {fileID: 0}
    - target: {fileID: 3082783376759099779, guid: 1bd80fca0881d3644af1d2d3487e6430, type: 3}
      propertyPath: m_LocalEulerAnglesHint.x
      value: -90
      objectReference: {fileID: 0}
    - target: {fileID: 3082783376759099779, guid: 1bd80fca0881d3644af1d2d3487e6430, type: 3}
      propertyPath: m_LocalEulerAnglesHint.y
      value: 0
      objectReference: {fileID: 0}
    - target: {fileID: 3082783376759099779, guid: 1bd80fca0881d3644af1d2d3487e6430, type: 3}
      propertyPath: m_LocalEulerAnglesHint.z
      value: 0
      objectReference: {fileID: 0}
    - target: {fileID: 3082783376759099780, guid: 1bd80fca0881d3644af1d2d3487e6430, type: 3}
      propertyPath: m_Materials.Array.data[0]
      value: 
      objectReference: {fileID: 2100000, guid: 53cf7467cc603a0408be6bedfd935bf2, type: 2}
    - target: {fileID: 3366123707488593364, guid: 1bd80fca0881d3644af1d2d3487e6430, type: 3}
      propertyPath: m_Materials.Array.data[0]
      value: 
      objectReference: {fileID: 2100000, guid: 4eb53a54e88f5ae47b7e07fa8bfec334, type: 2}
    - target: {fileID: 3407721758083722994, guid: 1bd80fca0881d3644af1d2d3487e6430, type: 3}
      propertyPath: m_Materials.Array.data[0]
      value: 
      objectReference: {fileID: 2100000, guid: 4eb53a54e88f5ae47b7e07fa8bfec334, type: 2}
    - target: {fileID: 5160151172501779973, guid: 1bd80fca0881d3644af1d2d3487e6430, type: 3}
      propertyPath: m_Materials.Array.data[0]
      value: 
      objectReference: {fileID: 2100000, guid: 4eb53a54e88f5ae47b7e07fa8bfec334, type: 2}
    - target: {fileID: 6334755436519622034, guid: 1bd80fca0881d3644af1d2d3487e6430, type: 3}
      propertyPath: m_Materials.Array.data[0]
      value: 
      objectReference: {fileID: 2100000, guid: 4eb53a54e88f5ae47b7e07fa8bfec334, type: 2}
    - target: {fileID: 7507077086390331938, guid: 1bd80fca0881d3644af1d2d3487e6430, type: 3}
      propertyPath: Event
      value: event:/Collectibles/Pickup_Coin_x5
      objectReference: {fileID: 0}
    m_RemovedComponents: []
  m_SourcePrefab: {fileID: 100100000, guid: 1bd80fca0881d3644af1d2d3487e6430, type: 3}
